APARICIÓN DE DEPRESIÓN, SUICIDIO, PIB
…
Depresión por CCAA: “https://datos.gob.es/es/catalogo/ea0010587-prevalencia-de-cuadros-depresivos-activos-segun-sexo-y-comunidad-autonoma-poblacion-de-15-y-mas-anos-identificador-api-t15-p420-a2019-p04-l0-13010-px1”
(Json)

Los archivos escogidos pertenecen a dos fuentes de datos: el
Instituto Nacional de Estadística (INE) y la página oficial del Gobierno
de España (gob.es) El formato de datos escogido son tanto .csv como
.json.

Importación

1º CONJUNTO DE DATOS Depresión por CCAA

## # A tibble: 240 × 4
##    document.id Sexo        Comunidad    Prevalencia                   
##          <int> <chr>       <chr>        <chr>                         
##  1           1 Ambos sexos " Total"     " TOTAL"                      
##  2           2 Ambos sexos " Total"     " Cuadro depresivo mayor"     
##  3           3 Ambos sexos " Total"     " Otros cuadros depresivos"   
##  4           4 Ambos sexos " Total"     " Sin cuadro depresivo alguno"
##  5           5 Ambos sexos " Andalucía" " TOTAL"                      
##  6           6 Ambos sexos " Andalucía" " Cuadro depresivo mayor"     
##  7           7 Ambos sexos " Andalucía" " Otros cuadros depresivos"   
##  8           8 Ambos sexos " Andalucía" " Sin cuadro depresivo alguno"
##  9           9 Ambos sexos " Aragón"    " TOTAL"                      
## 10          10 Ambos sexos " Aragón"    " Cuadro depresivo mayor"     
## # ℹ 230 more rows

## # A tibble: 3 × 3
##   name     type       n
##   <chr>    <fct>  <int>
## 1 Data     array    240
## 2 MetaData array    240
## 3 Nombre   string   240

## # A tbl_json: 240 x 3 tibble with a "JSON" attribute
##    ..JSON              document.id  Valor
##    <chr>                     <int>  <dbl>
##  1 "{\"Valor\":100}"             1 100   
##  2 "{\"Valor\":2.46}"            2   2.46
##  3 "{\"Valor\":2.9}"             3   2.9 
##  4 "{\"Valor\":94.64}"           4  94.6 
##  5 "{\"Valor\":100}"             5 100   
##  6 "{\"Valor\":2.13}"            6   2.13
##  7 "{\"Valor\":1.75}"            7   1.75
##  8 "{\"Valor\":96.12}"           8  96.1 
##  9 "{\"Valor\":100}"             9 100   
## 10 "{\"Valor\":1.85}"           10   1.85
## # ℹ 230 more rows

## # A tibble: 240 × 5
##    document.id Sexo        Comunidad    Prevalencia                     Valor
##          <int> <chr>       <chr>        <chr>                           <dbl>
##  1           1 Ambos sexos " Total"     " TOTAL"                       100   
##  2           2 Ambos sexos " Total"     " Cuadro depresivo mayor"        2.46
##  3           3 Ambos sexos " Total"     " Otros cuadros depresivos"      2.9 
##  4           4 Ambos sexos " Total"     " Sin cuadro depresivo alguno"  94.6 
##  5           5 Ambos sexos " Andalucía" " TOTAL"                       100   
##  6           6 Ambos sexos " Andalucía" " Cuadro depresivo mayor"        2.13
##  7           7 Ambos sexos " Andalucía" " Otros cuadros depresivos"      1.75
##  8           8 Ambos sexos " Andalucía" " Sin cuadro depresivo alguno"  96.1 
##  9           9 Ambos sexos " Aragón"    " TOTAL"                       100   
## 10          10 Ambos sexos " Aragón"    " Cuadro depresivo mayor"        1.85
## # ℹ 230 more rows

## # A tibble: 240 × 5
##    document.id Sexo_Depresion Comunidad    Prevalencia           Valor_Depresion
##          <int> <chr>          <chr>        <chr>                           <dbl>
##  1           1 Ambos sexos    " Total"     " TOTAL"                       100   
##  2           2 Ambos sexos    " Total"     " Cuadro depresivo m…            2.46
##  3           3 Ambos sexos    " Total"     " Otros cuadros depr…            2.9 
##  4           4 Ambos sexos    " Total"     " Sin cuadro depresi…           94.6 
##  5           5 Ambos sexos    " Andalucía" " TOTAL"                       100   
##  6           6 Ambos sexos    " Andalucía" " Cuadro depresivo m…            2.13
##  7           7 Ambos sexos    " Andalucía" " Otros cuadros depr…            1.75
##  8           8 Ambos sexos    " Andalucía" " Sin cuadro depresi…           96.1 
##  9           9 Ambos sexos    " Aragón"    " TOTAL"                       100   
## 10          10 Ambos sexos    " Aragón"    " Cuadro depresivo m…            1.85
## # ℹ 230 more rows

2º CONJUNTO DE DATOS Enfermedades Mentales por CCAA

## # A tbl_json: 300 x 3 tibble with a "JSON" attribute
##    ..JSON                  document.id Nombre                                   
##    <chr>                         <int> <chr>                                    
##  1 "{\"Nombre\":\"Tota..."           1 Total Nacional, Total, Esquizofrenia     
##  2 "{\"Nombre\":\"Tota..."           2 Total Nacional, Total, Trastorno bipolar 
##  3 "{\"Nombre\":\"Tota..."           3 Total Nacional, Total, Depresión crónica 
##  4 "{\"Nombre\":\"Tota..."           4 Total Nacional, Total, Ansiedad crónica  
##  5 "{\"Nombre\":\"Tota..."           5 Total Nacional, Total, Trastornos del es…
##  6 "{\"Nombre\":\"Tota..."           6 Total Nacional, Hombre, Esquizofrenia    
##  7 "{\"Nombre\":\"Tota..."           7 Total Nacional, Hombre, Trastorno bipolar
##  8 "{\"Nombre\":\"Tota..."           8 Total Nacional, Hombre, Depresión crónica
##  9 "{\"Nombre\":\"Tota..."           9 Total Nacional, Hombre, Ansiedad crónica 
## 10 "{\"Nombre\":\"Tota..."          10 Total Nacional, Hombre, Trastornos del e…
## # ℹ 290 more rows

## Warning: Expected 3 pieces. Additional pieces discarded in 90 rows [46, 47, 48, 49, 50,
## 51, 52, 53, 54, 55, 56, 57, 58, 59, 60, 61, 62, 63, 64, 65, ...].

## # A tibble: 300 × 4
##    document.id Comunidad      Sexo      Enfermedad                            
##          <int> <chr>          <chr>     <chr>                                 
##  1           1 Total Nacional " Total"  " Esquizofrenia"                      
##  2           2 Total Nacional " Total"  " Trastorno bipolar"                  
##  3           3 Total Nacional " Total"  " Depresión crónica"                  
##  4           4 Total Nacional " Total"  " Ansiedad crónica"                   
##  5           5 Total Nacional " Total"  " Trastornos del espectro del autismo"
##  6           6 Total Nacional " Hombre" " Esquizofrenia"                      
##  7           7 Total Nacional " Hombre" " Trastorno bipolar"                  
##  8           8 Total Nacional " Hombre" " Depresión crónica"                  
##  9           9 Total Nacional " Hombre" " Ansiedad crónica"                   
## 10          10 Total Nacional " Hombre" " Trastornos del espectro del autismo"
## # ℹ 290 more rows

## # A tibble: 3 × 3
##   name     type       n
##   <chr>    <fct>  <int>
## 1 Data     array    300
## 2 MetaData array    300
## 3 Nombre   string   300

## # A tbl_json: 300 x 3 tibble with a "JSON" attribute
##    ..JSON              document.id Valor
##    <chr>                     <int> <dbl>
##  1 "{\"Valor\":94.1}"            1  94.1
##  2 "{\"Valor\":107.4}"           2 107. 
##  3 "{\"Valor\":826.9}"           3 827. 
##  4 "{\"Valor\":790.5}"           4 790. 
##  5 "{\"Valor\":83.8}"            5  83.8
##  6 "{\"Valor\":58.4}"            6  58.4
##  7 "{\"Valor\":50.5}"            7  50.5
##  8 "{\"Valor\":240.8}"           8 241. 
##  9 "{\"Valor\":240.8}"           9 241. 
## 10 "{\"Valor\":64.7}"           10  64.7
## # ℹ 290 more rows

## # A tbl_json: 900 x 9 tibble with a "JSON" attribute
##    ..JSON                document.id array.index Nombre Codigo    Id Variable.Id
##    <chr>                       <int>       <int> <chr>  <chr>  <dbl>       <dbl>
##  1 "{\"Variable\":{\"I.…           1           1 Total… total…    NA          70
##  2 "{\"Variable\":{\"N.…           1           2 Total  total     NA          NA
##  3 "{\"Variable\":{\"N.…           1           3 Esqui… esqui…    NA          NA
##  4 "{\"Variable\":{\"I.…           2           1 Total… total…    NA          70
##  5 "{\"Variable\":{\"N.…           2           2 Total  total     NA          NA
##  6 "{\"Variable\":{\"N.…           2           3 Trast… trast…    NA          NA
##  7 "{\"Variable\":{\"I.…           3           1 Total… total…    NA          70
##  8 "{\"Variable\":{\"N.…           3           2 Total  total     NA          NA
##  9 "{\"Variable\":{\"N.…           3           3 Depre… depre…    NA          NA
## 10 "{\"Variable\":{\"I.…           4           1 Total… total…    NA          70
## # ℹ 890 more rows
## # ℹ 2 more variables: Variable.Nombre <chr>, Variable.Codigo <chr>

## # A tibble: 300 × 5
##    document.id Comunidad      Sexo      Enfermedad                         Valor
##          <int> <chr>          <chr>     <chr>                              <dbl>
##  1           1 Total Nacional " Total"  " Esquizofrenia"                    94.1
##  2           2 Total Nacional " Total"  " Trastorno bipolar"               107. 
##  3           3 Total Nacional " Total"  " Depresión crónica"               827. 
##  4           4 Total Nacional " Total"  " Ansiedad crónica"                790. 
##  5           5 Total Nacional " Total"  " Trastornos del espectro del aut…  83.8
##  6           6 Total Nacional " Hombre" " Esquizofrenia"                    58.4
##  7           7 Total Nacional " Hombre" " Trastorno bipolar"                50.5
##  8           8 Total Nacional " Hombre" " Depresión crónica"               241. 
##  9           9 Total Nacional " Hombre" " Ansiedad crónica"                241. 
## 10          10 Total Nacional " Hombre" " Trastornos del espectro del aut…  64.7
## # ℹ 290 more rows

## # A tibble: 300 × 5
##    document.id Comunidad      Sexo_EnfMental Enfermedad_Mental   Valor_EnfMental
##          <int> <chr>          <chr>          <chr>                         <dbl>
##  1           1 Total Nacional " Total"       " Esquizofrenia"               94.1
##  2           2 Total Nacional " Total"       " Trastorno bipola…           107. 
##  3           3 Total Nacional " Total"       " Depresión crónic…           827. 
##  4           4 Total Nacional " Total"       " Ansiedad crónica"           790. 
##  5           5 Total Nacional " Total"       " Trastornos del e…            83.8
##  6           6 Total Nacional " Hombre"      " Esquizofrenia"               58.4
##  7           7 Total Nacional " Hombre"      " Trastorno bipola…            50.5
##  8           8 Total Nacional " Hombre"      " Depresión crónic…           241. 
##  9           9 Total Nacional " Hombre"      " Ansiedad crónica"           241. 
## 10          10 Total Nacional " Hombre"      " Trastornos del e…            64.7
## # ℹ 290 more rows
…
## # A tibble: 6 × 3
##   name      type       n
##   <chr>     <fct>  <int>
## 1 COD       string    20
## 2 Data      array     20
## 3 MetaData  array     20
## 4 Nombre    string    20
## 5 T3_Escala string    20
## 6 T3_Unidad string    20

## Warning in spread_all(.): results in duplicate column names, appending .# for
## uniqueness

## # A tbl_json: 60 x 13 tibble with a "JSON" attribute
##    ..JSON        document.id COD   Nombre T3_Unidad T3_Escala array.index     Id
##    <chr>               <int> <chr> <chr>  <chr>     <chr>           <int>  <dbl>
##  1 "{\"Id\":164…           1 CRE4… "Tota… Porcenta… " "                 1  16473
##  2 "{\"Id\":72,…           1 CRE4… "Tota… Porcenta… " "                 2     72
##  3 "{\"Id\":383…           1 CRE4… "Tota… Porcenta… " "                 3 383015
##  4 "{\"Id\":899…           2 CRE4… "Anda… Porcenta… " "                 1   8997
##  5 "{\"Id\":72,…           2 CRE4… "Anda… Porcenta… " "                 2     72
##  6 "{\"Id\":383…           2 CRE4… "Anda… Porcenta… " "                 3 383015
##  7 "{\"Id\":899…           3 CRE4… "Arag… Porcenta… " "                 1   8998
##  8 "{\"Id\":72,…           3 CRE4… "Arag… Porcenta… " "                 2     72
##  9 "{\"Id\":383…           3 CRE4… "Arag… Porcenta… " "                 3 383015
## 10 "{\"Id\":899…           4 CRE4… "Astu… Porcenta… " "                 1   8999
## # ℹ 50 more rows
## # ℹ 5 more variables: Nombre.2 <chr>, Codigo <chr>, Variable.Id <dbl>,
## #   Variable.Nombre <chr>, Variable.Codigo <chr>
…
4º CONJUNTO DE DATOS

## Warning: Expected 3 pieces. Additional pieces discarded in 270 rows [136, 137, 138, 139,
## 140, 141, 142, 143, 144, 145, 146, 147, 148, 149, 150, 151, 152, 153, 154, 155,
## ...].

## # A tibble: 900 × 4
##    document.id Comunidad      Edad                Sexo      
##          <int> <chr>          <chr>               <chr>     
##  1           1 Total nacional " Menos de 15 años" " Total"  
##  2           2 Total nacional " Menos de 15 años" " Hombres"
##  3           3 Total nacional " Menos de 15 años" " Mujeres"
##  4           4 Total nacional " De 15 a 29 años"  " Total"  
##  5           5 Total nacional " De 15 a 29 años"  " Hombres"
##  6           6 Total nacional " De 15 a 29 años"  " Mujeres"
##  7           7 Total nacional " De 30 a 39 años"  " Total"  
##  8           8 Total nacional " De 30 a 39 años"  " Hombres"
##  9           9 Total nacional " De 30 a 39 años"  " Mujeres"
## 10          10 Total nacional " De 40 a 44 años"  " Total"  
## # ℹ 890 more rows

## # A tibble: 3 × 3
##   name     type       n
##   <chr>    <fct>  <int>
## 1 Data     array    900
## 2 MetaData array    900
## 3 Nombre   string   900

## # A tibble: 3,600 × 6
##    document.id NombrePeriodo Comunidad      Edad                Sexo       Valor
##          <int> <chr>         <chr>          <chr>               <chr>      <dbl>
##  1           1 2021          Total nacional " Menos de 15 años" " Total"   0.349
##  2           1 2020          Total nacional " Menos de 15 años" " Total"   0.206
##  3           1 2019          Total nacional " Menos de 15 años" " Total"   0.102
##  4           1 2018          Total nacional " Menos de 15 años" " Total"   0.101
##  5           2 2021          Total nacional " Menos de 15 años" " Hombres" 0.431
##  6           2 2020          Total nacional " Menos de 15 años" " Hombres" 0.199
##  7           2 2019          Total nacional " Menos de 15 años" " Hombres" 0.113
##  8           2 2018          Total nacional " Menos de 15 años" " Hombres" 0.112
##  9           3 2021          Total nacional " Menos de 15 años" " Mujeres" 0.262
## 10           3 2020          Total nacional " Menos de 15 años" " Mujeres" 0.212
## # ℹ 3,590 more rows

## # A tibble: 3,600 × 6
##    document.id Año_Suicidio Comunidad Edad_Suicidio Sexo_Suicidio Valor_Suicidio
##          <int> <chr>        <chr>     <chr>         <chr>                  <dbl>
##  1           1 2021         Total na… " Menos de 1… " Total"               0.349
##  2           1 2020         Total na… " Menos de 1… " Total"               0.206
##  3           1 2019         Total na… " Menos de 1… " Total"               0.102
##  4           1 2018         Total na… " Menos de 1… " Total"               0.101
##  5           2 2021         Total na… " Menos de 1… " Hombres"             0.431
##  6           2 2020         Total na… " Menos de 1… " Hombres"             0.199
##  7           2 2019         Total na… " Menos de 1… " Hombres"             0.113
##  8           2 2018         Total na… " Menos de 1… " Hombres"             0.112
##  9           3 2021         Total na… " Menos de 1… " Mujeres"             0.262
## 10           3 2020         Total na… " Menos de 1… " Mujeres"             0.212
## # ℹ 3,590 more rows

El valor es el tanto por cien mil

CASO 1: Depresión y Suicidio en España

UNION DEPRESIÓN Y SUICIDIO

## # A tibble: 900 × 10
##    document.id Sexo      Comunidad.x Prevalencia  Valor Año_Suicidio Comunidad.y
##          <int> <chr>     <chr>       <chr>        <dbl> <chr>        <chr>      
##  1           1 Ambos se… " Total"    " TOTAL"    100    2020         Total naci…
##  2           2 Ambos se… " Total"    " Cuadro d…   2.46 2020         Total naci…
##  3           3 Ambos se… " Total"    " Otros cu…   2.9  2020         Total naci…
##  4           4 Ambos se… " Total"    " Sin cuad…  94.6  2020         Total naci…
##  5           5 Ambos se… " Andalucí… " TOTAL"    100    2020         Total naci…
##  6           6 Ambos se… " Andalucí… " Cuadro d…   2.13 2020         Total naci…
##  7           7 Ambos se… " Andalucí… " Otros cu…   1.75 2020         Total naci…
##  8           8 Ambos se… " Andalucí… " Sin cuad…  96.1  2020         Total naci…
##  9           9 Ambos se… " Aragón"   " TOTAL"    100    2020         Total naci…
## 10          10 Ambos se… " Aragón"   " Cuadro d…   1.85 2020         Total naci…
## # ℹ 890 more rows
## # ℹ 3 more variables: Edad_Suicidio <chr>, Sexo_Suicidio <chr>,
## #   Valor_Suicidio <dbl>

UNION PIB Y DEPRESION + SUICIDIO

## # A tibble: 140 × 3
##    Comunidad      Periodo Total  
##    <chr>            <dbl> <chr>  
##  1 Total Nacional    2021 5,179  
##  2 Total Nacional    2020 -11,291
##  3 Total Nacional    2019 1,269  
##  4 Total Nacional    2018 1,86   
##  5 Total Nacional    2017 2,79   
##  6 Total Nacional    2016 2,943  
##  7 Total Nacional    2015 3,936  
##  8 Andalucía         2021 <NA>   
##  9 Andalucía         2020 -10,381
## 10 Andalucía         2019 1,453  
## # ℹ 130 more rows
…
##  8 Castilla y León                2020 -8,232 
##  9 Castilla - La Mancha           2020 -8,085 
## 10 Cataluña                       2020 -12,071
## 11 Comunitat Valenciana           2020 -10,778
## 12 Extremadura                    2020 -7,097 
## 13 Galicia                        2020 -9,132 
## 14 Madrid, Comunidad de           2020 -11,877
## 15 Murcia, Región de              2020 -9,113 
## 16 Navarra, Comunidad Foral de    2020 -9,286 
## 17 País Vasco                     2020 -11,152
## 18 Rioja, La                      2020 -9,959 
## 19 Ceuta                          2020 -8,549 
## 20 Melilla                        2020 -8,933

## # A tibble: 900 × 8
##    document.id Año_Suicidio Comunidad Edad_Suicidio Sexo_Suicidio Valor_Suicidio
##          <int> <chr>        <chr>     <chr>         <chr>                  <dbl>
##  1           1 2020         Total na… " Menos de 1… " Total"               0.206
##  2           2 2020         Total na… " Menos de 1… " Hombres"             0.199
##  3           3 2020         Total na… " Menos de 1… " Mujeres"             0.212
##  4           4 2020         Total na… " De 15 a 29… " Total"               4.09 
##  5           5 2020         Total na… " De 15 a 29… " Hombres"             6.05 
##  6           6 2020         Total na… " De 15 a 29… " Mujeres"             2.04 
##  7           7 2020         Total na… " De 30 a 39… " Total"               6.82 
##  8           8 2020         Total na… " De 30 a 39… " Hombres"            10.4  
##  9           9 2020         Total na… " De 30 a 39… " Mujeres"             3.24 
## 10          10 2020         Total na… " De 40 a 44… " Total"               9.13 
## # ℹ 890 more rows
## # ℹ 2 more variables: Periodo <dbl>, Total <chr>
…
